Relatorio do Programa:
Operacoes:
    add Chave
    add Rodolfo
    add Luana
    add SHEEEEEEEEEESH
    add islas
    add arrascaeta
    add gabigol
    add gerso
    add lupi
    add mel
    add shinji
    add asuka
    add rei
    add bailu
    add himeko
    add DanHeng
    add Herta
    add Lais
    add Serval
    add TimMaia
    add Chave1
    add Rodolfo1
    add Luana1
    add islas1
    add arrascaeta1
    add gabigol1
    add gerso1
    add lupi1
    add mel1
    add shinji1
    add asuka1
    add rei1
    add bailu1
    add himeko1
    add DanHeng1
    add Herta1
    add Lais1
    add Serval1
    add TimMaia1

Total de colisoes: 8

Tabela Enderecamento Aberto:
    [1] chave:shinji, tentativas:0
    [3] chave:Rodolfo, tentativas:0
    [4] chave:himeko1, tentativas:0
    [5] chave:bailu1, tentativas:1
    [7] chave:Luana, tentativas:0
    [8] chave:DanHeng1, tentativas:0
    [13] chave:islas, tentativas:0
    [25] chave:TimMaia, tentativas:0
    [27] chave:Chave, tentativas:0
    [30] chave:asuka, tentativas:0
    [32] chave:gabigol1, tentativas:0
    [33] chave:mel1, tentativas:0
    [34] chave:DanHeng, tentativas:0
    [35] chave:rei1, tentativas:3
    [38] chave:Luana1, tentativas:0
    [41] chave:Herta, tentativas:0
    [44] chave:islas1, tentativas:0
    [46] chave:mel, tentativas:0
    [51] chave:bailu, tentativas:0
    [52] chave:himeko, tentativas:0
    [54] chave:shinji1, tentativas:0
    [56] chave:lupi, tentativas:0
    [58] chave:gabigol, tentativas:0
    [59] chave:Lais, tentativas:0
    [61] chave:asuka1, tentativas:0
    [62] chave:arrascaeta1, tentativas:1
    [65] chave:lupi1, tentativas:0
    [66] chave:gerso, tentativas:0
    [68] chave:Lais1, tentativas:0
    [71] chave:rei, tentativas:0
    [72] chave:Herta1, tentativas:0
    [78] chave:Rodolfo1, tentativas:0
    [82] chave:Chave1, tentativas:1
    [83] chave:SHEEEEEEEEEESH, tentativas:0
    [89] chave:Serval, tentativas:0
    [91] chave:Serval1, tentativas:2
    [97] chave:gerso1, tentativas:0
    [99] chave:arrascaeta, tentativas:0
    [100] chave:TimMaia1, tentativas:0

Total de chaves armazenadas:39
Tabela Encadeamento Externo:
    [1]: shinji
    [3]: Rodolfo
    [4]: himeko1
    [7]: Luana
    [8]: DanHeng1
    [13]: islas
    [25]: TimMaia
    [27]: Chave
    [30]: asuka
    [32]: gabigol1
    [33]: mel1
    [34]: DanHeng
    [38]: Luana1 -> arrascaeta1
    [41]: Herta -> Serval1
    [44]: islas1
    [46]: mel
    [51]: bailu
    [52]: himeko
    [54]: shinji1
    [56]: lupi
    [58]: gabigol -> Chave1
    [59]: Lais
    [61]: asuka1
    [65]: lupi1
    [66]: gerso
    [68]: Lais1
    [71]: rei
    [72]: Herta1
    [78]: Rodolfo1
    [82]: bailu1
    [83]: SHEEEEEEEEEESH
    [89]: Serval
    [97]: gerso1
    [99]: arrascaeta
    [100]: TimMaia1
